Predicting MLS Matches using Machine Learning Techniques
…
cv_MLS_all_vars$bestTune

##    nvmax
## 60    60

tidy(coef(cv_MLS_all_vars$finalModel,id=60))

## Warning: 'tidy.numeric' is deprecated.
## See help("Deprecated")

## # A tibble: 61 x 2
##    names                       x
##    <chr>                   <dbl>
##  1 (Intercept)          8.17e-15
##  2 TeamChicago Fire    -3.82e-16
##  3 TeamChivas USA       8.43e-15
##  4 TeamColorado Rapids -2.68e-16
##  5 TeamColumbus Crew   -5.87e-16
##  6 TeamDC United       -1.20e-15
##  7 TeamFC Cincinnati    1.43e-14
##  8 TeamFC Dallas       -7.87e-16
##  9 TeamHouston Dynamo  -1.37e-15
## 10 TeamLos Angeles FC   5.33e-15
## #  with 51 more rows
…
